Lab4/pc/pc_top.vcd
$version Generated by VerilatedVcd $end
$date Fri Nov 24 19:44:57 2023 $end
$timescale 1ps $end

 $scope module TOP $end
  $var wire  1 $ clk $end
  $var wire 32 # imm_op [31:0] $end
  $var wire 16 ' pc [15:0] $end
  $var wire  1 & pc_src $end
  $var wire  1 % rst $end
  $scope module pc_top $end
   $var wire 32 ) PC_WIDTH [31:0] $end
   $var wire  1 $ clk $end
   $var wire 32 # imm_op [31:0] $end
   $var wire 16 ( next_pc [15:0] $end
   $var wire 16 ' pc [15:0] $end
   $var wire  1 & pc_src $end
   $var wire  1 % rst $end
   $scope module pc_reg $end
    $var wire 32 ) PC_WIDTH [31:0] $end
    $var wire  1 $ clk $end
    $var wire 16 ( next_pc [15:0] $end
    $var wire 16 ' pc [15:0] $end
    $var wire  1 % rst $end
   $upscope $end
  $upscope $end
 $upscope $end
$enddefinitions $end


#0
b00000000000000000000000011111111 #
1$
1%
0&
b0000000000000000 '
b0000000000000100 (
b00000000000000000000000000010000 )
#1
0$
#2
1$
#3
0$
#4
1$
#5
0$
#6
1$
0%
#7
0$
#8
1$
b0000000000000100 '
b0000000000001000 (
#9
0$
#10
1$
1&
b0000000000001000 '
b0000000100000111 (
#11
0$
#12
1$
0&
b0000000100000111 '
b0000000100001011 (
#13
0$
#14
1$
b0000000100001011 '
b0000000100001111 (
#15
0$
#16
1$
b0000000100001111 '
b0000000100010011 (
#17
0$
#18
1$
b0000000100010011 '
b0000000100010111 (
#19
0$
#20
1$
b0000000100010111 '
b0000000100011011 (
#21
0$
#22
1$
b0000000100011011 '
b0000000100011111 (
#23
0$
#24
1$
b0000000100011111 '
b0000000100100011 (
#25
0$
#26
1$
b0000000100100011 '
b0000000100100111 (
#27
0$
#28
1$
b0000000100100111 '
b0000000100101011 (
#29
0$
#30
1$
b0000000100101011 '
b0000000100101111 (
#31
0$
#32
1$
b0000000100101111 '
b0000000100110011 (
#33
0$
#34
1$
b0000000100110011 '
b0000000100110111 (
#35
0$
#36
1$
b0000000100110111 '
b0000000100111011 (
#37
0$
#38
1$
b0000000100111011 '
b0000000100111111 (
#39
0$
#40
1$
b0000000100111111 '
b0000000101000011 (
#41
0$
#42
1$
b0000000101000011 '
b0000000101000111 (
#43
0$
#44
1$
b0000000101000111 '
b0000000101001011 (
#45
0$
#46
1$
b0000000101001011 '
b0000000101001111 (
#47
0$
#48
1$
b0000000101001111 '
b0000000101010011 (
#49
0$
#50
1$
b0000000101010011 '
b0000000101010111 (
#51
0$
#52
1$
b0000000101010111 '
b0000000101011011 (
#53
0$
#54
1$
b0000000101011011 '
b0000000101011111 (
#55
0$
#56
1$
b0000000101011111 '
b0000000101100011 (
#57
0$
#58
1$
b0000000101100011 '
b0000000101100111 (
#59
0$
#60
1$
b0000000101100111 '
b0000000101101011 (
#61
0$
#62
1$
b0000000101101011 '
b0000000101101111 (
#63
0$
#64
1$
b0000000101101111 '
b0000000101110011 (
#65
0$
#66
1$
b0000000101110011 '
b0000000101110111 (
#67
0$
#68
1$
b0000000101110111 '
b0000000101111011 (
#69
0$
#70
1$
b0000000101111011 '
b0000000101111111 (
#71
0$
#72
1$
b0000000101111111 '
b0000000110000011 (
#73
0$
#74
1$
b0000000110000011 '
b0000000110000111 (
#75
0$
#76
1$
b0000000110000111 '
b0000000110001011 (
#77
0$
#78
1$
b0000000110001011 '
b0000000110001111 (
#79
0$
#80
1$
b0000000110001111 '
b0000000110010011 (
#81
0$
#82
1$
b0000000110010011 '
b0000000110010111 (
#83
0$
#84
1$
b0000000110010111 '
b0000000110011011 (
#85
0$
#86
1$
b0000000110011011 '
b0000000110011111 (
#87
0$
#88
1$
b0000000110011111 '
b0000000110100011 (
#89
0$
#90
1$
b0000000110100011 '
b0000000110100111 (
#91
0$
#92
1$
b0000000110100111 '
b0000000110101011 (
#93
0$
#94
1$
b0000000110101011 '
b0000000110101111 (
#95
0$
#96
1$
b0000000110101111 '
b0000000110110011 (
#97
0$
#98
1$
b0000000110110011 '
b0000000110110111 (
#99
0$
#100
1$
b0000000110110111 '
b0000000110111011 (
#101
0$
#102
1$
b0000000110111011 '
b0000000110111111 (
#103
0$
#104
1$
b0000000110111111 '
b0000000111000011 (
#105
0$
#106
1$
b0000000111000011 '
b0000000111000111 (
#107
0$
#108
1$
b0000000111000111 '
b0000000111001011 (
#109
0$
#110
1$
b0000000111001011 '
b0000000111001111 (
#111
0$
#112
1$
b0000000111001111 '
b0000000111010011 (
#113
0$
#114
1$
b0000000111010011 '
b0000000111010111 (
#115
0$
#116
1$
b0000000111010111 '
b0000000111011011 (
#117
0$
#118
1$
b0000000111011011 '
b0000000111011111 (
#119
0$
#120
1$
b0000000111011111 '
b0000000111100011 (
#121
0$
#122
1$
b0000000111100011 '
b0000000111100111 (
#123
0$
#124
1$
b0000000111100111 '
b0000000111101011 (
#125
0$
#126
1$
b0000000111101011 '
b0000000111101111 (
#127
0$
#128
1$
b0000000111101111 '
b0000000111110011 (
#129
0$
#130
1$
b0000000111110011 '
b0000000111110111 (
#131
0$
#132
1$
b0000000111110111 '
b0000000111111011 (
#133
0$
#134
1$
b0000000111111011 '
b0000000111111111 (
#135
0$
#136
1$
b0000000111111111 '
b0000001000000011 (
#137
0$
#138
1$
b0000001000000011 '
b0000001000000111 (
#139
0$
#140
1$
b0000001000000111 '
b0000001000001011 (
#141
0$
#142
1$
b0000001000001011 '
b0000001000001111 (
#143
0$
#144
1$
b0000001000001111 '
b0000001000010011 (
#145
0$
#146
1$
b0000001000010011 '
b0000001000010111 (
#147
0$
#148
1$
b0000001000010111 '
b0000001000011011 (
#149
0$
#150
1$
b0000001000011011 '
b0000001000011111 (
#151
0$
#152
1$
b0000001000011111 '
b0000001000100011 (
#153
0$
#154
1$
b0000001000100011 '
b0000001000100111 (
#155
0$
#156
1$
b0000001000100111 '
b0000001000101011 (
#157
0$
#158
1$
b0000001000101011 '
b0000001000101111 (
#159
0$
#160
1$
b0000001000101111 '
b0000001000110011 (
#161
0$
#162
1$
b0000001000110011 '
b0000001000110111 (
#163
0$
#164
1$
b0000001000110111 '
b0000001000111011 (
#165
0$
#166
1$
b0000001000111011 '
b0000001000111111 (
#167
0$
#168
1$
b0000001000111111 '
b0000001001000011 (
#169
0$
#170
1$
b0000001001000011 '
b0000001001000111 (
#171
0$
#172
1$
b0000001001000111 '
b0000001001001011 (
#173
0$
#174
1$
b0000001001001011 '
b0000001001001111 (
#175
0$
#176
1$
b0000001001001111 '
b0000001001010011 (
#177
0$
#178
1$
b0000001001010011 '
b0000001001010111 (
#179
0$
#180
1$
b0000001001010111 '
b0000001001011011 (
#181
0$
#182
1$
b0000001001011011 '
b0000001001011111 (
#183
0$
#184
1$
b0000001001011111 '
b0000001001100011 (
#185
0$
#186
1$
b0000001001100011 '
b0000001001100111 (
#187
0$
#188
1$
b0000001001100111 '
b0000001001101011 (
#189
0$
#190
1$
b0000001001101011 '
b0000001001101111 (
#191
0$
#192
1$
b0000001001101111 '
b0000001001110011 (
#193
0$
#194
1$
b0000001001110011 '
b0000001001110111 (
#195
0$
#196
1$
b0000001001110111 '
b0000001001111011 (
#197
0$
#198
1$
b0000001001111011 '
b0000001001111111 (
#199
0$
#200
1$
b0000001001111111 '
b0000001010000011 (
#201
0$
#202
1$
b0000001010000011 '
b0000001010000111 (
#203
0$
#204
1$
b0000001010000111 '
b0000001010001011 (
#205
0$
#206
1$
b0000001010001011 '
b0000001010001111 (
#207
0$
#208
1$
b0000001010001111 '
b0000001010010011 (
#209
0$
#210
1$
b0000001010010011 '
b0000001010010111 (
#211
0$
#212
1$
b0000001010010111 '
b0000001010011011 (
#213
0$
#214
1$
b0000001010011011 '
b0000001010011111 (
#215
0$
#216
1$
b0000001010011111 '
b0000001010100011 (
#217
0$
#218
1$
b0000001010100011 '
b0000001010100111 (
#219
0$
#220
1$
b0000001010100111 '
b0000001010101011 (
#221
0$
#222
1$
b0000001010101011 '
b0000001010101111 (
#223
0$
#224
1$
b0000001010101111 '
b0000001010110011 (
#225
0$
#226
1$
b0000001010110011 '
b0000001010110111 (
#227
0$
#228
1$
b0000001010110111 '
b0000001010111011 (
#229
0$
#230
1$
b0000001010111011 '
b0000001010111111 (
#231
0$
#232
1$
b0000001010111111 '
b0000001011000011 (
#233
0$
#234
1$
b0000001011000011 '
b0000001011000111 (
#235
0$
#236
1$
b0000001011000111 '
b0000001011001011 (
#237
0$
#238
1$
b0000001011001011 '
b0000001011001111 (
#239
0$
#240
1$
b0000001011001111 '
b0000001011010011 (
#241
0$
#242
1$
b0000001011010011 '
b0000001011010111 (
#243
0$
#244
1$
b0000001011010111 '
b0000001011011011 (
#245
0$
#246
1$
b0000001011011011 '
b0000001011011111 (
#247
0$
#248
1$
b0000001011011111 '
b0000001011100011 (
#249
0$
#250
1$
b0000001011100011 '
b0000001011100111 (
#251
0$
#252
1$
b0000001011100111 '
b0000001011101011 (
#253
0$
#254
1$
b0000001011101011 '
b0000001011101111 (
#255
0$
#256
1$
b0000001011101111 '
b0000001011110011 (
#257
0$
#258
1$
b0000001011110011 '
b0000001011110111 (
#259
0$
#260
1$
b0000001011110111 '
b0000001011111011 (
#261
0$
#262
1$
b0000001011111011 '
b0000001011111111 (
#263
0$
#264
1$
b0000001011111111 '
b0000001100000011 (
#265
0$
#266
1$
b0000001100000011 '
b0000001100000111 (
#267
0$
#268
1$
b0000001100000111 '
b0000001100001011 (
#269
0$
#270
1$
b0000001100001011 '
b0000001100001111 (
#271
0$
#272
1$
b0000001100001111 '
b0000001100010011 (
#273
0$
#274
1$
b0000001100010011 '
b0000001100010111 (
#275
0$
#276
1$
b0000001100010111 '
b0000001100011011 (
#277
0$
#278
1$
b0000001100011011 '
b0000001100011111 (
#279
0$
#280
1$
b0000001100011111 '
b0000001100100011 (
#281
0$
#282
1$
b0000001100100011 '
b0000001100100111 (
#283
0$
#284
1$
b0000001100100111 '
b0000001100101011 (
#285
0$
#286
1$
b0000001100101011 '
b0000001100101111 (
#287
0$
#288
1$
b0000001100101111 '
b0000001100110011 (
#289
0$
#290
1$
b0000001100110011 '
b0000001100110111 (
#291
0$
#292
1$
b0000001100110111 '
b0000001100111011 (
#293
0$
#294
1$
b0000001100111011 '
b0000001100111111 (
#295
0$
#296
1$
b0000001100111111 '
b0000001101000011 (
#297
0$
#298
1$
b0000001101000011 '
b0000001101000111 (
#299
0$
#300
1$
b0000001101000111 '
b0000001101001011 (
#301
0$
#302
1$
b0000001101001011 '
b0000001101001111 (
#303
0$
#304
1$
b0000001101001111 '
b0000001101010011 (
#305
0$
#306
1$
b0000001101010011 '
b0000001101010111 (
#307
0$
#308
1$
b0000001101010111 '
b0000001101011011 (
#309
0$
#310
1$
b0000001101011011 '
b0000001101011111 (
#311
0$
#312
1$
b0000001101011111 '
b0000001101100011 (
#313
0$
#314
1$
b0000001101100011 '
b0000001101100111 (
#315
0$
#316
1$
b0000001101100111 '
b0000001101101011 (
#317
0$
#318
1$
b0000001101101011 '
b0000001101101111 (
#319
0$
#320
1$
b0000001101101111 '
b0000001101110011 (
#321
0$
#322
1$
b0000001101110011 '
b0000001101110111 (
#323
0$
#324
1$
b0000001101110111 '
b0000001101111011 (
#325
0$
#326
1$
b0000001101111011 '
b0000001101111111 (
#327
0$
#328
1$
b0000001101111111 '
b0000001110000011 (
#329
0$
#330
1$
b0000001110000011 '
b0000001110000111 (
#331
0$
#332
1$
b0000001110000111 '
b0000001110001011 (
#333
0$
#334
1$
b0000001110001011 '
b0000001110001111 (
#335
0$
#336
1$
b0000001110001111 '
b0000001110010011 (
#337
0$
#338
1$
b0000001110010011 '
b0000001110010111 (
#339
0$
#340
1$
b0000001110010111 '
b0000001110011011 (
#341
0$
#342
1$
b0000001110011011 '
b0000001110011111 (
#343
0$
#344
1$
b0000001110011111 '
b0000001110100011 (
#345
0$
#346
1$
b0000001110100011 '
b0000001110100111 (
#347
0$
#348
1$
b0000001110100111 '
b0000001110101011 (
#349
0$
#350
1$
b0000001110101011 '
b0000001110101111 (
#351
0$
#352
1$
b0000001110101111 '
b0000001110110011 (
#353
0$
#354
1$
b0000001110110011 '
b0000001110110111 (
#355
0$
#356
1$
b0000001110110111 '
b0000001110111011 (
#357
0$
#358
1$
b0000001110111011 '
b0000001110111111 (
#359
0$
#360
1$
b0000001110111111 '
b0000001111000011 (
#361
0$
#362
1$
b0000001111000011 '
b0000001111000111 (
#363
0$
#364
1$
b0000001111000111 '
b0000001111001011 (
#365
0$
#366
1$
b0000001111001011 '
b0000001111001111 (
#367
0$
#368
1$
b0000001111001111 '
b0000001111010011 (
#369
0$
#370
1$
b0000001111010011 '
b0000001111010111 (
#371
0$
#372
1$
b0000001111010111 '
b0000001111011011 (
#373
0$
#374
1$
b0000001111011011 '
b0000001111011111 (
#375
0$
#376
1$
b0000001111011111 '
b0000001111100011 (
#377
0$
#378
1$
b0000001111100011 '
b0000001111100111 (
#379
0$
#380
1$
b0000001111100111 '
b0000001111101011 (
#381
0$
#382
1$
b0000001111101011 '
b0000001111101111 (
#383
0$
#384
1$
b0000001111101111 '
b0000001111110011 (
#385
0$
#386
1$
b0000001111110011 '
b0000001111110111 (
#387
0$
#388
1$
b0000001111110111 '
b0000001111111011 (
#389
0$
#390
1$
b0000001111111011 '
b0000001111111111 (
#391
0$
#392
1$
b0000001111111111 '
b0000010000000011 (
#393
0$
#394
1$
b0000010000000011 '
b0000010000000111 (
#395
0$
#396
1$
b0000010000000111 '
b0000010000001011 (
#397
0$
#398
1$
b0000010000001011 '
b0000010000001111 (
#399
0$
#400
1$
b0000010000001111 '
b0000010000010011 (
#401
0$
#402
1$
b0000010000010011 '
b0000010000010111 (
#403
0$
#404
1$
b0000010000010111 '
b0000010000011011 (
#405
0$
#406
1$
b0000010000011011 '
b0000010000011111 (
#407
0$
#408
1$
b0000010000011111 '
b0000010000100011 (
#409
0$
#410
1$
b0000010000100011 '
b0000010000100111 (
#411
0$
#412
1$
b0000010000100111 '
b0000010000101011 (
#413
0$
#414
1$
b0000010000101011 '
b0000010000101111 (
#415
0$
#416
1$
b0000010000101111 '
b0000010000110011 (
#417
0$
#418
1$
b0000010000110011 '
b0000010000110111 (
#419
0$
#420
1$
b0000010000110111 '
b0000010000111011 (
#421
0$
#422
1$
b0000010000111011 '
b0000010000111111 (
#423
0$
#424
1$
b0000010000111111 '
b0000010001000011 (
#425
0$
#426
1$
b0000010001000011 '
b0000010001000111 (
#427
0$
#428
1$
b0000010001000111 '
b0000010001001011 (
#429
0$
#430
1$
b0000010001001011 '
b0000010001001111 (
#431
0$
#432
1$
b0000010001001111 '
b0000010001010011 (
#433
0$
#434
1$
b0000010001010011 '
b0000010001010111 (
#435
0$
#436
1$
b0000010001010111 '
b0000010001011011 (
#437
0$
#438
1$
b0000010001011011 '
b0000010001011111 (
#439
0$
#440
1$
b0000010001011111 '
b0000010001100011 (
#441
0$
#442
1$
b0000010001100011 '
b0000010001100111 (
#443
0$
#444
1$
b0000010001100111 '
b0000010001101011 (
#445
0$
#446
1$
b0000010001101011 '
b0000010001101111 (
#447
0$
#448
1$
b0000010001101111 '
b0000010001110011 (
#449
0$
#450
1$
b0000010001110011 '
b0000010001110111 (
#451
0$
#452
1$
b0000010001110111 '
b0000010001111011 (
#453
0$
#454
1$
b0000010001111011 '
b0000010001111111 (
#455
0$
#456
1$
b0000010001111111 '
b0000010010000011 (
#457
0$
#458
1$
b0000010010000011 '
b0000010010000111 (
#459
0$
#460
1$
b0000010010000111 '
b0000010010001011 (
#461
0$
#462
1$
b0000010010001011 '
b0000010010001111 (
#463
0$
#464
1$
b0000010010001111 '
b0000010010010011 (
#465
0$
#466
1$
b0000010010010011 '
b0000010010010111 (
#467
0$
#468
1$
b0000010010010111 '
b0000010010011011 (
#469
0$
#470
1$
b0000010010011011 '
b0000010010011111 (
#471
0$
#472
1$
b0000010010011111 '
b0000010010100011 (
#473
0$
#474
1$
b0000010010100011 '
b0000010010100111 (
#475
0$
#476
1$
b0000010010100111 '
b0000010010101011 (
#477
0$
#478
1$
b0000010010101011 '
b0000010010101111 (
#479
0$
#480
1$
b0000010010101111 '
b0000010010110011 (
#481
0$
#482
1$
b0000010010110011 '
b0000010010110111 (
#483
0$
#484
1$
b0000010010110111 '
b0000010010111011 (
#485
0$
#486
1$
b0000010010111011 '
b0000010010111111 (
#487
0$
#488
1$
b0000010010111111 '
b0000010011000011 (
#489
0$
#490
1$
b0000010011000011 '
b0000010011000111 (
#491
0$
#492
1$
b0000010011000111 '
b0000010011001011 (
#493
0$
#494
1$
b0000010011001011 '
b0000010011001111 (
#495
0$
#496
1$
b0000010011001111 '
b0000010011010011 (
#497
0$
#498
1$
b0000010011010011 '
b0000010011010111 (
#499
0$
#500
1$
b0000010011010111 '
b0000010011011011 (
#501
0$
#502
1$
b0000010011011011 '
b0000010011011111 (
#503
0$
#504
1$
b0000010011011111 '
b0000010011100011 (
#505
0$
#506
1$
b0000010011100011 '
b0000010011100111 (
#507
0$
#508
1$
b0000010011100111 '
b0000010011101011 (
#509
0$
#510
1$
b0000010011101011 '
b0000010011101111 (
#511
0$
#512
1$
b0000010011101111 '
b0000010011110011 (
#513
0$
#514
1$
b0000010011110011 '
b0000010011110111 (
#515
0$
#516
1$
b0000010011110111 '
b0000010011111011 (
#517
0$
#518
1$
b0000010011111011 '
b0000010011111111 (
#519
0$
#520
1$
b0000010011111111 '
b0000010100000011 (
#521
0$
#522
1$
b0000010100000011 '
b0000010100000111 (
#523
0$
#524
1$
b0000010100000111 '
b0000010100001011 (
#525
0$
#526
1$
b0000010100001011 '
b0000010100001111 (
#527
0$
#528
1$
b0000010100001111 '
b0000010100010011 (
#529
0$
#530
1$
b0000010100010011 '
b0000010100010111 (
#531
0$
#532
1$
b0000010100010111 '
b0000010100011011 (
#533
0$
#534
1$
b0000010100011011 '
b0000010100011111 (
#535
0$
#536
1$
b0000010100011111 '
b0000010100100011 (
#537
0$
#538
1$
b0000010100100011 '
b0000010100100111 (
#539
0$
#540
1$
b0000010100100111 '
b0000010100101011 (
#541
0$
#542
1$
b0000010100101011 '
b0000010100101111 (
#543
0$
#544
1$
b0000010100101111 '
b0000010100110011 (
#545
0$
#546
1$
b0000010100110011 '
b0000010100110111 (
#547
0$
#548
1$
b0000010100110111 '
b0000010100111011 (
#549
0$
#550
1$
b0000010100111011 '
b0000010100111111 (
#551
0$
#552
1$
b0000010100111111 '
b0000010101000011 (
#553
0$
#554
1$
b0000010101000011 '
b0000010101000111 (
#555
0$
#556
1$
b0000010101000111 '
b0000010101001011 (
#557
0$
#558
1$
b0000010101001011 '
b0000010101001111 (
#559
0$
#560
1$
b0000010101001111 '
b0000010101010011 (
#561
0$
#562
1$
b0000010101010011 '
b0000010101010111 (
#563
0$
#564
1$
b0000010101010111 '
b0000010101011011 (
#565
0$
#566
1$
b0000010101011011 '
b0000010101011111 (
#567
0$
#568
1$
b0000010101011111 '
b0000010101100011 (
#569
0$
#570
1$
b0000010101100011 '
b0000010101100111 (
#571
0$
#572
1$
b0000010101100111 '
b0000010101101011 (
#573
0$
#574
1$
b0000010101101011 '
b0000010101101111 (
#575
0$
#576
1$
b0000010101101111 '
b0000010101110011 (
#577
0$
#578
1$
b0000010101110011 '
b0000010101110111 (
#579
0$
#580
1$
b0000010101110111 '
b0000010101111011 (
#581
0$
#582
1$
b0000010101111011 '
b0000010101111111 (
#583
0$
#584
1$
b0000010101111111 '
b0000010110000011 (
#585
0$
#586
1$
b0000010110000011 '
b0000010110000111 (
#587
0$
#588
1$
b0000010110000111 '
b0000010110001011 (
#589
0$
#590
1$
b0000010110001011 '
b0000010110001111 (
#591
0$
#592
1$
b0000010110001111 '
b0000010110010011 (
#593
0$
#594
1$
b0000010110010011 '
b0000010110010111 (
#595
0$
#596
1$
b0000010110010111 '
b0000010110011011 (
#597
0$
#598
1$
b0000010110011011 '
b0000010110011111 (
